<?xml version="1.0" encoding="utf-8"?>
<!-- Generator: Adobe Illustrator 26.0.0, SVG Export Plug-In . SVG Version: 6.00 Build 0)  -->
<svg version="1.1" id="Layer_1" xmlns="http://www.w3.org/2000/svg" xmlns:xlink="http://www.w3.org/1999/xlink" x="0px" y="0px"
	 viewBox="0 0 1024 1024" style="enable-background:new 0 0 1024 1024;" xml:space="preserve">
<style type="text/css">
	.st0{fill:url(#SVGID_1_);}
	.st1{fill:url(#SVGID_00000088818926345116317860000014893468572392478106_);}
	.st2{fill:url(#SVGID_00000088830550545556283230000002551435362115502267_);}
	.st3{fill:url(#SVGID_00000067951019732997012620000007538641078211730051_);}
</style>
<g>
	<linearGradient id="SVGID_1_" gradientUnits="userSpaceOnUse" x1="0.5" y1="512" x2="1023.5" y2="512">
		<stop  offset="0" style="stop-color:#366994"/>
		<stop  offset="1" style="stop-color:#387EB8"/>
	</linearGradient>
	<rect x="0.5" y="0.5" class="st0" width="1023" height="1023"/>
	<path d="M1023,1v1022H1V1H1023 M1024,0H0v1024h1024V0L1024,0z"/>
</g>
<linearGradient id="SVGID_00000060729756261303377280000000634788854120065426_" gradientUnits="userSpaceOnUse" x1="224.0006" y1="512" x2="799.9994" y2="512">
	<stop  offset="0" style="stop-color:#FFC331"/>
	<stop  offset="1" style="stop-color:#FFE052"/>
</linearGradient>
<path style="fill:url(#SVGID_00000060729756261303377280000000634788854120065426_);" d="M789.4,440.6
	c-9.9-39.7-28.7-69.7-68.7-69.7h-51.6v60.9c0,47.3-40.1,87.2-85.9,87.2H446c-37.5,0-68.7,32.1-68.7,69.8v130.9
	c0,37.3,32.4,59.1,68.7,69.8c43.5,12.7,85.2,15,137.3,0c34.6-10,68.7-30.2,68.7-69.8v-52.3H514.8v-17.5h206
	c40,0,54.8-27.9,68.7-69.7C803.8,537.2,803.2,495.8,789.4,440.6L789.4,440.6z M592,702.3c14.3,0,25.8,11.7,25.8,26.1
	c0,14.5-11.6,26.2-25.8,26.2c-14.1,0-25.8-11.8-25.8-26.2C566.2,713.8,577.8,702.3,592,702.3z M439.7,501.8H577
	c38.2,0,68.7-31.5,68.7-69.8V301c0-37.3-31.4-65.2-68.7-71.5c-46-7.6-96-7.2-137.3,0.1c-58.1,10.3-68.7,31.8-68.7,71.5v52.3h137.4
	V371h-189c-40,0-75,24-85.9,69.7c-12.6,52.3-13.1,85,0,139.6c9.8,40.6,33,69.7,73,69.7h47.2v-62.7
	C353.9,541.8,393.1,501.8,439.7,501.8L439.7,501.8z M431.1,318.5c-14.3,0-25.8-11.7-25.8-26.1c0.1-14.5,11.6-26.2,25.8-26.2
	c14.1,0,25.8,11.8,25.8,26.2S445.4,318.5,431.1,318.5z"/>
<g>
	
		<linearGradient id="SVGID_00000178207117666461055380000000301451128589702024_" gradientUnits="userSpaceOnUse" x1="163" y1="512" x2="224.4223" y2="512">
		<stop  offset="0" style="stop-color:#FFC331"/>
		<stop  offset="1" style="stop-color:#FFE052"/>
	</linearGradient>
	<path style="fill:url(#SVGID_00000178207117666461055380000000301451128589702024_);" d="M179.4,825.3h45v14.3H163V184.4h61.4v14.3
		h-45"/>
</g>
<linearGradient id="SVGID_00000142152528545246987150000010277599837997628295_" gradientUnits="userSpaceOnUse" x1="797.697" y1="512" x2="861.1667" y2="512">
	<stop  offset="0" style="stop-color:#FFC331"/>
	<stop  offset="1" style="stop-color:#FFE052"/>
</linearGradient>
<polygon style="fill:url(#SVGID_00000142152528545246987150000010277599837997628295_);" points="844.8,825.3 844.8,200.8 
	797.7,200.8 797.7,184.4 861.2,184.4 861.2,839.6 797.7,839.6 797.7,825.3 "/>
</svg>
