digraph hierarchy {
  nodesep=0.3
  fontname="Helvetica,Arial,sans-serif"
  ranksep=1;

  node [shape=box;style=filled;color="#b20100" fillcolor="#edd5d5"]

  "New User" -> "Python Community" [color="#b22800"]

  "Python Community" -> "Community" [style=dashed;color="#b22800"];
  "Python Community" -> "Python Q&A" [style=dashed;color="#b22800"];
  "Python Community" -> "News" [style=dashed;color="#b22800"];
  "Python Community" -> "Showroom" [style=dashed;color="#b22800"];
  "Python Community" -> "Support" [style=dashed;color="#b22800"];
  "Python Community" -> "Jobs" [style=dashed;color="#b22800"];

  "Python Community" [fillcolor="#99ccff";color="#0066ff"]
  "New User" [fillcolor="#99ff99";color="#009933"]
}
